interactions:
- request:
    body: null
    headers:
      Accept: [application/json]
      Content-Type: [application/json]
      User-Agent: [python-requests/1.2.0 porc/0.4.0]
    method: GET
    uri: https://api.orchestrate.io:443/v0/COLLECTION_1?query=%2A&limit=1
  response:
    body: {string: !!python/unicode '{"count":1,"total_count":5,"results":[{"path":{"collection":"COLLECTION_1","key":"06f5e7ccbc20c0d3","ref":"545689fb72dd515a","reftime":1418429812925},"value":{"lol":true},"score":1.0,"reftime":1418429812925}],"next":"/v0/COLLECTION_1?limit=1&query=%2A&offset=1"}'}
    headers:
      connection: [keep-alive]
      content-type: [application/json]
      date: ['Sat, 13 Dec 2014 00:16:54 GMT']
      link: ['</v0/COLLECTION_1?limit=1&query=%2A&offset=1>; rel="next"']
      transfer-encoding: [chunked]
      vary: [Accept-Encoding]
      x-orchestrate-req-id: [58161890-825d-11e4-a70c-12313d2f9238]
    status: {code: 200, message: OK}
- request:
    body: null
    headers:
      Accept: [application/json]
      Content-Type: [application/json]
      User-Agent: [python-requests/1.2.0 porc/0.4.0]
    method: GET
    uri: https://api.orchestrate.io:443//v0/COLLECTION_1?limit=1&query=%2A&offset=1&query=%2A&limit=1
  response:
    body: {string: !!python/unicode '{"count":1,"total_count":6,"results":[{"path":{"collection":"COLLECTION_1","key":"06f5e7cc4d207c92","ref":"545689fb72dd515a","reftime":1418429812814},"value":{"lol":true},"score":1.0,"reftime":1418429812814}],"next":"/v0/COLLECTION_1?limit=1&limit=1&query=%2A&query=%2A&offset=2","prev":"/v0/COLLECTION_1?limit=1&limit=1&query=%2A&query=%2A&offset=0"}'}
    headers:
      connection: [keep-alive]
      content-type: [application/json]
      date: ['Sat, 13 Dec 2014 00:16:55 GMT']
      link: ['</v0/COLLECTION_1?limit=1&limit=1&query=%2A&query=%2A&offset=2>; rel="next"',
        '</v0/COLLECTION_1?limit=1&limit=1&query=%2A&query=%2A&offset=0>; rel="prev"']
      transfer-encoding: [chunked]
      vary: [Accept-Encoding]
      x-orchestrate-req-id: [585851b0-825d-11e4-a6de-22000a0d84a1]
    status: {code: 200, message: OK}
- request:
    body: null
    headers:
      Accept: [application/json]
      Content-Type: [application/json]
      User-Agent: [python-requests/1.2.0 porc/0.4.0]
    method: GET
    uri: https://api.orchestrate.io:443//v0/COLLECTION_1?limit=1&limit=1&query=%2A&query=%2A&offset=2&query=%2A&limit=1
  response:
    body: {string: !!python/unicode '{"count":0,"total_count":1,"results":[],"prev":"/v0/COLLECTION_1?limit=1&limit=1&limit=1&query=%2A&query=%2A&query=%2A&offset=1"}'}
    headers:
      connection: [keep-alive]
      content-type: [application/json]
      date: ['Sat, 13 Dec 2014 00:16:55 GMT']
      link: ['</v0/COLLECTION_1?limit=1&limit=1&limit=1&query=%2A&query=%2A&query=%2A&offset=1>;
          rel="prev"']
      transfer-encoding: [chunked]
      vary: [Accept-Encoding]
      x-orchestrate-req-id: [5869dde0-825d-11e4-a439-12313d2f7cdc]
    status: {code: 200, message: OK}
version: 1
